com\example\demo\DemoApplication.class
net\techu\ProductosV4Controller.class
net\techu\data\ProductoRepository.class
net\techu\SaludoControl.class
net\techu\ProductosController.class
net\techu\data\ProductoMongo.class
net\techu\BeanPerosonalizacion.class
net\techu\BeanContexto.class
net\techu\ProductosV3Controller.class
net\techu\TiendaApplication.class
net\techu\ProductosV2Controller.class
net\techu\Producto.class
